{
  "formatVersion": 1,
  "database": {
    "version": 3,
    "identityHash": "0316d05c0e3a37bbc45e26add2e997dd",
    "entities": [
      {
        "tableName": "todo",
        "createSql": "CREATE TABLE IF NOT EXISTS `${TABLE_NAME}` (`id` INTEGER PRIMARY KEY AUTOINCREMENT, `creation_date` INTEGER NOT NULL, `due_date` INTEGER, `author` TEXT NOT NULL, `title` TEXT NOT NULL, `detail` TEXT, `completed` INTEGER NOT NULL, `modified` INTEGER NOT NULL)",
        "fields": [
          {
            "fieldPath": "id",
            "columnName": "id",
            "affinity": "INTEGER",
            "notNull": false
          },
          {
            "fieldPath": "creationDate",
            "columnName": "creation_date",
            "affinity": "INTEGER",
            "notNull": true
          },
          {
            "fieldPath": "dueDate",
            "columnName": "due_date",
            "affinity": "INTEGER",
            "notNull": false
          },
          {
            "fieldPath": "author",
            "columnName": "author",
            "affinity": "TEXT",
            "notNull": true
          },
          {
            "fieldPath": "title",
            "columnName": "title",
            "affinity": "TEXT",
            "notNull": true
          },
          {
            "fieldPath": "detail",
            "columnName": "detail",
            "affinity": "TEXT",
            "notNull": false
          },
          {
            "fieldPath": "completed",
            "columnName": "completed",
            "affinity": "INTEGER",
            "notNull": true
          },
          {
            "fieldPath": "modified",
            "columnName": "modified",
            "affinity": "INTEGER",
            "notNull": true
          }
        ],
        "primaryKey": {
          "columnNames": [
            "id"
          ],
          "autoGenerate": true
        },
        "indices": [],
        "foreignKeys": []
      },
      {
        "tableName": "deleted_todos",
        "createSql": "CREATE TABLE IF NOT EXISTS `${TABLE_NAME}` (`id` INTEGER PRIMARY KEY AUTOINCREMENT, `todo_id` INTEGER NOT NULL)",
        "fields": [
          {
            "fieldPath": "id",
            "columnName": "id",
            "affinity": "INTEGER",
            "notNull": false
          },
          {
            "fieldPath": "todoId",
            "columnName": "todo_id",
            "affinity": "INTEGER",
            "notNull": true
          }
        ],
        "primaryKey": {
          "columnNames": [
            "id"
          ],
          "autoGenerate": true
        },
        "indices": [],
        "foreignKeys": []
      }
    ],
    "setupQueries": [
      "CREATE TABLE IF NOT EXISTS room_master_table (id INTEGER PRIMARY KEY,identity_hash TEXT)",
      "INSERT OR REPLACE INTO room_master_table (id,identity_hash) VALUES(42, \"0316d05c0e3a37bbc45e26add2e997dd\")"
    ]
  }
}